OpenLand
…
#### Essa é a estrutura padrão adotada para as tabelas de contingencias dentro do OpenLand

---
# Tabela de contingencia

#### Tabela de contingencia (multipasso) criada com OpenLand

```r
SL_2002_2014$lulc_Multistep
```

```
## # A tibble: 130 x 8
##    Period     From    To      km2 QtPixel Interval yearFrom yearTo
##    <chr>     <int> <int>    <dbl>   <int>    <int>    <int>  <int>
##  1 2002-2008     2     2 6543.    7269961        6     2002   2008
##  2 2002-2008     2    10    1.56     1736        6     2002   2008
##  3 2002-2008     2    11   55.2     61320        6     2002   2008
##  4 2002-2008     2    12   23.9     26609        6     2002   2008
##  5 2002-2008     3     2   37.5     41649        6     2002   2008
##  6 2002-2008     3     3 2133.    2370190        6     2002   2008
##  7 2002-2008     3     7  155.     172718        6     2002   2008
##  8 2002-2008     3    11    7.48     8307        6     2002   2008
##  9 2002-2008     3    12    0.356     395        6     2002   2008
## 10 2002-2008     3    13    0.081      90        6     2002   2008
## # ... with 120 more rows
```
…
